<?xml version="1.0" encoding="utf-8"?>
<!-- Generator: Adobe Illustrator 23.0.1, SVG Export Plug-In . SVG Version: 6.00 Build 0)  -->
<svg version="1.1" id="Layer_1" xmlns="http://www.w3.org/2000/svg" xmlns:xlink="http://www.w3.org/1999/xlink" x="0px" y="0px"
	 viewBox="0 0 245 49.48" style="enable-background:new 0 0 245 49.48;" xml:space="preserve">
<style type="text/css">
	.st0{fill:#FFFFFF;}
</style>
<g>
	<g>
		<rect x="16.79" y="8.35" class="st0" width="18.24" height="4.37"/>
		<rect x="1.38" class="st0" width="49.08" height="4.37"/>
		<path class="st0" d="M15.64,17.47v27.56h-3.98V17.47c0-2.83-1.67-5.01-3.85-5.01s-3.85,1.67-3.85,3.85c0,1.41,0.77,2.7,2.06,3.47
			l0.26,0.13L5.1,23.64l-0.39-0.13c-3.47-1.41-5.4-5.27-4.5-9.12c0.64-2.44,2.57-4.5,5.01-5.4c0.9-0.26,1.8-0.39,2.57-0.39
			C12.17,8.48,15.64,12.46,15.64,17.47z"/>
		<path class="st0" d="M47.11,23.38l-0.39,0.13l-1.16-3.73l0.39-0.13c1.28-0.64,2.06-1.93,2.06-3.34c0-2.06-1.8-3.85-3.85-3.85
			c-2.18,0-3.85,2.18-3.85,5.01v27.56h-3.98V17.47c0-5.01,3.47-8.99,7.84-8.99c0.9,0,1.67,0.13,2.57,0.39
			c2.44,0.9,4.37,2.95,5.01,5.4C52.51,18.11,50.71,21.84,47.11,23.38z"/>
		<rect x="19.49" y="16.57" class="st0" width="4.37" height="28.33"/>
		<rect x="27.84" y="16.57" class="st0" width="4.37" height="28.33"/>
	</g>
	<g>
		<path class="st0" d="M60.61,0.15h14.98V4h-10.6v6.01h7.92v3.89h-7.92v9.42h-4.38V0.15z"/>
		<path class="st0" d="M75.73,15.16c0-1.18,0.21-2.3,0.64-3.35c0.43-1.05,1.02-1.97,1.79-2.76c0.76-0.79,1.69-1.41,2.76-1.88
			c1.08-0.46,2.26-0.7,3.56-0.7c1.3,0,2.48,0.23,3.56,0.7c1.08,0.46,2,1.09,2.76,1.88c0.76,0.79,1.36,1.71,1.79,2.76
			c0.43,1.05,0.64,2.17,0.64,3.35c0,1.18-0.21,2.3-0.64,3.35c-0.43,1.05-1.02,1.98-1.79,2.78c-0.76,0.8-1.69,1.43-2.76,1.89
			c-1.08,0.46-2.26,0.7-3.56,0.7c-1.3,0-2.49-0.23-3.56-0.7c-1.08-0.46-2-1.09-2.76-1.89c-0.76-0.8-1.36-1.73-1.79-2.78
			C75.94,17.46,75.73,16.34,75.73,15.16z M84.49,20.34c0.79,0,1.47-0.16,2.05-0.47c0.58-0.31,1.06-0.72,1.44-1.23
			c0.38-0.51,0.67-1.07,0.85-1.67c0.19-0.6,0.28-1.2,0.28-1.81c0-0.58-0.09-1.18-0.28-1.79c-0.19-0.61-0.47-1.17-0.85-1.67
			c-0.38-0.5-0.86-0.9-1.44-1.22c-0.58-0.31-1.26-0.47-2.05-0.47c-0.79,0-1.47,0.16-2.05,0.47C81.86,10.8,81.38,11.2,81,11.7
			c-0.38,0.5-0.67,1.05-0.85,1.67c-0.19,0.61-0.28,1.21-0.28,1.79c0,0.6,0.09,1.2,0.28,1.81c0.19,0.6,0.47,1.16,0.85,1.67
			c0.38,0.51,0.86,0.92,1.44,1.23C83.02,20.18,83.7,20.34,84.49,20.34z"/>
		<path class="st0" d="M96.27,7.03h4.1v9.87c0,1.04,0.28,1.85,0.85,2.42c0.57,0.57,1.3,0.85,2.21,0.85c0.56,0,1.08-0.11,1.56-0.33
			c0.49-0.22,0.9-0.53,1.25-0.92c0.35-0.39,0.62-0.85,0.82-1.37c0.2-0.52,0.29-1.08,0.29-1.69V7.03h4.1v16.3h-3.93l-0.1-1.84
			c-0.21,0.23-0.46,0.48-0.76,0.73c-0.3,0.26-0.65,0.49-1.04,0.71c-0.39,0.22-0.85,0.4-1.36,0.54c-0.51,0.14-1.09,0.21-1.74,0.21
			c-2.04,0-3.59-0.61-4.66-1.82c-1.07-1.22-1.6-2.86-1.6-4.92V7.03z"/>
		<path class="st0" d="M115.31,7.03h3.93l0.1,1.84c0.21-0.23,0.46-0.47,0.75-0.73c0.29-0.26,0.64-0.49,1.04-0.71
			c0.4-0.22,0.86-0.4,1.37-0.54c0.51-0.14,1.09-0.21,1.74-0.21c2.04,0,3.59,0.61,4.66,1.82c1.07,1.22,1.6,2.86,1.6,4.92v9.9h-4.1
			v-9.87c0-1.04-0.28-1.85-0.85-2.42c-0.57-0.57-1.3-0.85-2.21-0.85c-0.56,0-1.08,0.11-1.56,0.33c-0.49,0.22-0.9,0.53-1.25,0.92
			c-0.35,0.39-0.62,0.85-0.82,1.37c-0.2,0.52-0.29,1.08-0.29,1.69v8.83h-4.1V7.03z"/>
		<path class="st0" d="M145.54,21.73c-0.21,0.23-0.46,0.48-0.76,0.73c-0.3,0.26-0.66,0.49-1.06,0.7c-0.41,0.21-0.86,0.38-1.36,0.52
			c-0.5,0.14-1.06,0.21-1.69,0.21c-0.88,0-1.75-0.19-2.61-0.56s-1.62-0.91-2.29-1.63c-0.67-0.72-1.22-1.6-1.63-2.64
			c-0.42-1.04-0.63-2.24-0.63-3.58c0-1.27,0.19-2.39,0.56-3.35c0.37-0.96,0.83-1.78,1.39-2.45c0.46-0.56,0.97-1.02,1.53-1.39
			c0.56-0.37,1.12-0.68,1.69-0.92c0.57-0.24,1.12-0.42,1.65-0.52c0.53-0.1,1-0.16,1.39-0.16c0.53,0,0.97,0.02,1.32,0.05
			c0.35,0.03,0.66,0.08,0.94,0.14c0.28,0.06,0.53,0.13,0.76,0.23c0.23,0.09,0.5,0.2,0.8,0.31V0.15h4.07v23.18h-3.96L145.54,21.73z
			 M145.54,11.09c-0.39-0.32-0.85-0.55-1.37-0.68c-0.52-0.13-1.19-0.19-2-0.19c-0.81,0-1.48,0.16-2.02,0.47
			c-0.53,0.31-1,0.72-1.39,1.23c-0.35,0.46-0.62,1-0.82,1.62c-0.2,0.61-0.29,1.26-0.29,1.93c0,1.39,0.35,2.55,1.04,3.48
			c0.7,0.93,1.7,1.39,3.02,1.39c0.69,0,1.29-0.13,1.77-0.4c0.49-0.27,0.88-0.61,1.18-1.02c0.3-0.42,0.52-0.87,0.66-1.37
			c0.14-0.5,0.21-0.98,0.21-1.44V11.09z"/>
		<path class="st0" d="M163.09,21.8c-0.44,0.53-1.11,1.01-2.02,1.42s-1.91,0.63-3.02,0.63c-0.67,0-1.34-0.1-2-0.31
			c-0.66-0.21-1.26-0.53-1.81-0.96c-0.54-0.43-0.98-0.98-1.32-1.65c-0.34-0.67-0.51-1.46-0.51-2.36c0-0.93,0.17-1.75,0.52-2.48
			c0.35-0.73,0.83-1.34,1.46-1.84c0.63-0.5,1.38-0.87,2.26-1.13c0.88-0.25,1.85-0.38,2.92-0.38c0.32,0,0.68,0.01,1.08,0.02
			c0.39,0.01,0.78,0.03,1.15,0.05c0.42,0.02,0.85,0.05,1.29,0.07v-0.38c0-0.81-0.33-1.45-0.97-1.91c-0.65-0.46-1.49-0.7-2.54-0.7
			c-1.16,0-2.08,0.15-2.78,0.45c-0.69,0.3-1.31,0.63-1.84,0.97l-1.88-2.78c0.33-0.23,0.7-0.47,1.11-0.71
			c0.42-0.24,0.9-0.46,1.46-0.66c0.55-0.2,1.2-0.36,1.93-0.49c0.73-0.13,1.58-0.19,2.55-0.19c1.04,0,1.99,0.14,2.83,0.43
			c0.85,0.29,1.57,0.7,2.17,1.22c0.6,0.52,1.07,1.15,1.39,1.88c0.32,0.73,0.49,1.52,0.49,2.38v10.95h-3.82L163.09,21.8z
			 M163.09,15.96c-0.42-0.02-0.82-0.05-1.22-0.07c-0.33-0.02-0.67-0.04-1.02-0.05c-0.36-0.01-0.67-0.02-0.92-0.02
			c-1.32,0-2.25,0.26-2.78,0.78c-0.53,0.52-0.8,1.12-0.8,1.79c0,0.7,0.25,1.24,0.75,1.63c0.5,0.39,1.23,0.59,2.21,0.59
			c0.49,0,0.96-0.08,1.41-0.24c0.45-0.16,0.85-0.38,1.2-0.66c0.35-0.28,0.63-0.6,0.85-0.97c0.22-0.37,0.33-0.76,0.33-1.18V15.96z"/>
		<path class="st0" d="M172.2,10.36h-2.78V7.03h2.78V1.75h4.1v5.28h4.38v3.34h-4.38v7.12c0,0.93,0.16,1.64,0.47,2.14
			c0.31,0.5,0.82,0.75,1.51,0.75c0.65,0,1.16-0.09,1.55-0.28c0.38-0.19,0.75-0.41,1.1-0.66l1.74,2.54c-0.81,0.67-1.61,1.15-2.4,1.44
			c-0.79,0.29-1.67,0.43-2.64,0.43c-1,0-1.84-0.14-2.54-0.43c-0.7-0.29-1.26-0.7-1.69-1.23c-0.43-0.53-0.74-1.18-0.92-1.93
			c-0.19-0.75-0.28-1.58-0.28-2.49V10.36z"/>
		<path class="st0" d="M184.64,0.15h4.38v4.31h-4.38V0.15z M184.78,7.03h4.1v16.3h-4.1V7.03z"/>
		<path class="st0" d="M192.14,15.16c0-1.18,0.21-2.3,0.64-3.35c0.43-1.05,1.02-1.97,1.79-2.76c0.76-0.79,1.69-1.41,2.76-1.88
			c1.08-0.46,2.26-0.7,3.56-0.7c1.3,0,2.48,0.23,3.56,0.7c1.08,0.46,2,1.09,2.76,1.88c0.76,0.79,1.36,1.71,1.79,2.76
			c0.43,1.05,0.64,2.17,0.64,3.35c0,1.18-0.21,2.3-0.64,3.35c-0.43,1.05-1.02,1.98-1.79,2.78c-0.76,0.8-1.69,1.43-2.76,1.89
			c-1.08,0.46-2.26,0.7-3.56,0.7c-1.3,0-2.49-0.23-3.56-0.7c-1.08-0.46-2-1.09-2.76-1.89c-0.76-0.8-1.36-1.73-1.79-2.78
			C192.36,17.46,192.14,16.34,192.14,15.16z M200.9,20.34c0.79,0,1.47-0.16,2.05-0.47c0.58-0.31,1.06-0.72,1.44-1.23
			c0.38-0.51,0.67-1.07,0.85-1.67c0.19-0.6,0.28-1.2,0.28-1.81c0-0.58-0.09-1.18-0.28-1.79c-0.19-0.61-0.47-1.17-0.85-1.67
			c-0.38-0.5-0.86-0.9-1.44-1.22c-0.58-0.31-1.26-0.47-2.05-0.47c-0.79,0-1.47,0.16-2.05,0.47c-0.58,0.31-1.06,0.72-1.44,1.22
			c-0.38,0.5-0.67,1.05-0.85,1.67c-0.19,0.61-0.28,1.21-0.28,1.79c0,0.6,0.09,1.2,0.28,1.81c0.19,0.6,0.47,1.16,0.85,1.67
			c0.38,0.51,0.86,0.92,1.44,1.23C199.43,20.18,200.11,20.34,200.9,20.34z"/>
		<path class="st0" d="M212.75,7.03h3.93l0.1,1.84c0.21-0.23,0.46-0.47,0.75-0.73c0.29-0.26,0.64-0.49,1.04-0.71
			c0.4-0.22,0.86-0.4,1.37-0.54c0.51-0.14,1.09-0.21,1.74-0.21c2.04,0,3.59,0.61,4.66,1.82c1.07,1.22,1.6,2.86,1.6,4.92v9.9h-4.1
			v-9.87c0-1.04-0.28-1.85-0.85-2.42c-0.57-0.57-1.3-0.85-2.21-0.85c-0.56,0-1.08,0.11-1.56,0.33c-0.49,0.22-0.9,0.53-1.25,0.92
			c-0.35,0.39-0.62,0.85-0.82,1.37c-0.2,0.52-0.29,1.08-0.29,1.69v8.83h-4.1V7.03z"/>
		<path class="st0" d="M233.39,18.67c0.51,0.51,1.15,0.93,1.93,1.27c0.78,0.34,1.66,0.5,2.66,0.5c0.88,0,1.59-0.12,2.12-0.35
			c0.53-0.23,0.8-0.61,0.8-1.15c0-0.23-0.05-0.45-0.14-0.64s-0.29-0.39-0.59-0.57c-0.3-0.19-0.72-0.37-1.25-0.56
			c-0.53-0.19-1.25-0.38-2.15-0.59c-0.56-0.14-1.14-0.32-1.74-0.56c-0.6-0.23-1.16-0.55-1.69-0.96c-0.52-0.41-0.95-0.89-1.29-1.46
			c-0.34-0.57-0.5-1.25-0.5-2.03c0-0.81,0.2-1.53,0.59-2.17c0.39-0.64,0.91-1.17,1.55-1.6s1.36-0.76,2.15-0.99
			c0.8-0.23,1.6-0.35,2.42-0.35c1.44,0,2.66,0.15,3.67,0.45c1.01,0.3,1.92,0.75,2.73,1.36l-2.12,2.88
			c-0.44-0.32-1.02-0.62-1.74-0.89c-0.72-0.27-1.56-0.4-2.54-0.4c-0.97,0-1.65,0.14-2.03,0.43c-0.38,0.29-0.57,0.64-0.57,1.06
			c0,0.51,0.32,0.91,0.96,1.2c0.64,0.29,1.63,0.6,2.97,0.92c0.83,0.19,1.58,0.42,2.24,0.7c0.66,0.28,1.23,0.63,1.7,1.04
			s0.84,0.91,1.1,1.48c0.25,0.57,0.38,1.25,0.38,2.03c0,0.79-0.19,1.5-0.56,2.14c-0.37,0.64-0.88,1.18-1.51,1.62
			c-0.64,0.44-1.38,0.78-2.22,1.03c-0.85,0.24-1.74,0.36-2.69,0.36c-1.53,0-2.91-0.21-4.14-0.64c-1.23-0.43-2.21-1.06-2.95-1.89
			L233.39,18.67z"/>
	</g>
	<g>
		<path class="st0" d="M60.61,30.94h4.49c0.9,0,1.66,0.12,2.28,0.37c0.62,0.25,1.12,0.56,1.51,0.95c0.39,0.39,0.67,0.83,0.84,1.32
			c0.18,0.49,0.26,0.99,0.26,1.5c0,0.9-0.21,1.7-0.63,2.38c-0.42,0.69-1.08,1.2-1.96,1.54l3.29,6.01h-2.28l-3.02-5.76h-2.83v5.76
			h-1.96V30.94z M65.28,37.54c0.89,0,1.55-0.22,1.99-0.65c0.44-0.44,0.66-1.02,0.66-1.75c0-0.77-0.24-1.37-0.72-1.8
			s-1.14-0.64-1.98-0.64h-2.66v4.85H65.28z"/>
		<path class="st0" d="M81.48,43.57c-0.11,0.13-0.28,0.29-0.51,0.48c-0.23,0.2-0.52,0.39-0.88,0.57s-0.78,0.34-1.27,0.47
			c-0.48,0.13-1.04,0.2-1.66,0.2c-0.76,0-1.46-0.13-2.09-0.38c-0.63-0.25-1.17-0.61-1.62-1.08c-0.45-0.46-0.8-1.02-1.05-1.67
			c-0.25-0.65-0.37-1.36-0.37-2.15c0-0.72,0.12-1.39,0.36-2.02c0.24-0.63,0.58-1.17,1.01-1.62c0.44-0.46,0.95-0.82,1.55-1.09
			c0.6-0.27,1.26-0.4,1.97-0.4c0.84,0,1.57,0.16,2.17,0.49c0.6,0.32,1.1,0.75,1.49,1.29c0.39,0.53,0.67,1.15,0.86,1.84
			c0.18,0.69,0.27,1.41,0.27,2.15h-7.74c0.01,0.44,0.11,0.84,0.29,1.2s0.41,0.68,0.71,0.95c0.3,0.27,0.63,0.48,1.01,0.63
			s0.78,0.23,1.2,0.23c0.83,0,1.51-0.14,2.05-0.42c0.53-0.28,0.92-0.56,1.16-0.82L81.48,43.57z M79.77,39.25
			c-0.06-0.76-0.32-1.41-0.8-1.94c-0.48-0.53-1.15-0.8-2.03-0.8c-0.45,0-0.86,0.08-1.21,0.23c-0.36,0.15-0.66,0.36-0.92,0.61
			c-0.25,0.25-0.45,0.55-0.59,0.88c-0.14,0.33-0.22,0.67-0.23,1.02H79.77z"/>
		<path class="st0" d="M92.37,43.66c-0.44,0.49-0.97,0.89-1.61,1.19c-0.64,0.3-1.38,0.45-2.23,0.45c-0.79,0-1.5-0.13-2.14-0.39
			c-0.64-0.26-1.18-0.62-1.62-1.08c-0.44-0.46-0.79-1.01-1.02-1.65c-0.24-0.64-0.36-1.34-0.36-2.1c0-0.72,0.13-1.39,0.38-2.03
			c0.25-0.63,0.61-1.18,1.07-1.66c0.46-0.47,1-0.84,1.62-1.12c0.63-0.27,1.32-0.41,2.08-0.41c0.83,0,1.56,0.15,2.19,0.44
			c0.63,0.3,1.17,0.7,1.63,1.2l-1.25,1.2c-0.3-0.37-0.65-0.65-1.08-0.87c-0.42-0.21-0.92-0.32-1.5-0.32c-0.51,0-0.96,0.1-1.36,0.29
			c-0.4,0.19-0.74,0.45-1.01,0.78c-0.27,0.33-0.49,0.71-0.63,1.14c-0.15,0.43-0.22,0.88-0.22,1.34c0,0.45,0.07,0.89,0.22,1.32
			c0.15,0.43,0.36,0.81,0.63,1.14c0.27,0.33,0.61,0.59,1.01,0.79c0.4,0.2,0.85,0.3,1.36,0.3c0.58,0,1.09-0.11,1.55-0.33
			s0.83-0.51,1.13-0.88L92.37,43.66z"/>
		<path class="st0" d="M98.63,45.3c-0.76,0-1.46-0.14-2.09-0.41c-0.63-0.27-1.18-0.65-1.64-1.13c-0.46-0.48-0.82-1.03-1.08-1.66
			c-0.26-0.63-0.39-1.3-0.39-2.02c0-0.72,0.13-1.39,0.39-2.02c0.26-0.63,0.62-1.18,1.08-1.66c0.46-0.48,1-0.85,1.64-1.13
			c0.63-0.27,1.33-0.41,2.09-0.41c0.74,0,1.43,0.14,2.07,0.41c0.63,0.27,1.18,0.65,1.65,1.13c0.46,0.48,0.82,1.03,1.09,1.66
			c0.26,0.63,0.39,1.3,0.39,2.02c0,0.72-0.13,1.39-0.39,2.02c-0.26,0.63-0.62,1.18-1.09,1.66c-0.47,0.48-1.01,0.85-1.65,1.13
			C100.07,45.17,99.38,45.3,98.63,45.3z M98.63,43.66c0.51,0,0.96-0.1,1.37-0.31c0.41-0.2,0.75-0.47,1.03-0.8
			c0.28-0.33,0.5-0.71,0.64-1.14c0.15-0.43,0.22-0.87,0.22-1.32c0-0.44-0.07-0.87-0.22-1.3c-0.15-0.43-0.37-0.81-0.65-1.15
			c-0.29-0.34-0.63-0.61-1.03-0.81c-0.4-0.2-0.86-0.31-1.36-0.31c-0.51,0-0.96,0.1-1.37,0.31c-0.41,0.2-0.75,0.47-1.03,0.8
			c-0.28,0.33-0.5,0.71-0.64,1.14c-0.15,0.43-0.22,0.87-0.22,1.32c0,0.45,0.07,0.89,0.22,1.31c0.15,0.42,0.37,0.8,0.65,1.14
			c0.29,0.34,0.63,0.61,1.03,0.81C97.67,43.56,98.13,43.66,98.63,43.66z"/>
		<path class="st0" d="M104.41,35.2h2.17l3.06,7.66l3.04-7.66h2.05l-4.2,9.81h-1.9L104.41,35.2z"/>
		<path class="st0" d="M124.78,43.57c-0.11,0.13-0.28,0.29-0.51,0.48c-0.23,0.2-0.52,0.39-0.88,0.57c-0.36,0.18-0.78,0.34-1.27,0.47
			c-0.48,0.13-1.04,0.2-1.66,0.2c-0.76,0-1.46-0.13-2.09-0.38c-0.63-0.25-1.17-0.61-1.62-1.08c-0.45-0.46-0.8-1.02-1.05-1.67
			c-0.25-0.65-0.37-1.36-0.37-2.15c0-0.72,0.12-1.39,0.36-2.02c0.24-0.63,0.58-1.17,1.01-1.62c0.44-0.46,0.95-0.82,1.55-1.09
			c0.6-0.27,1.26-0.4,1.97-0.4c0.84,0,1.57,0.16,2.17,0.49c0.6,0.32,1.1,0.75,1.49,1.29c0.39,0.53,0.67,1.15,0.86,1.84
			c0.18,0.69,0.27,1.41,0.27,2.15h-7.74c0.01,0.44,0.11,0.84,0.29,1.2s0.41,0.68,0.71,0.95c0.3,0.27,0.63,0.48,1.01,0.63
			c0.38,0.16,0.78,0.23,1.2,0.23c0.83,0,1.51-0.14,2.05-0.42s0.92-0.56,1.16-0.82L124.78,43.57z M123.07,39.25
			c-0.06-0.76-0.32-1.41-0.8-1.94c-0.48-0.53-1.15-0.8-2.03-0.8c-0.45,0-0.86,0.08-1.21,0.23c-0.36,0.15-0.66,0.36-0.92,0.61
			c-0.25,0.25-0.45,0.55-0.59,0.88c-0.14,0.33-0.22,0.67-0.23,1.02H123.07z"/>
		<path class="st0" d="M127.18,45.01v-8.86c0-0.1,0-0.21,0-0.34s-0.01-0.33-0.02-0.61h1.81l0.06,1.58c0.11-0.17,0.26-0.36,0.44-0.56
			c0.18-0.2,0.4-0.39,0.66-0.56c0.26-0.17,0.56-0.31,0.91-0.43c0.34-0.12,0.74-0.18,1.19-0.18c0.21,0,0.4,0.01,0.58,0.04
			c0.18,0.03,0.34,0.07,0.5,0.13l-0.42,1.77c-0.25-0.1-0.58-0.15-0.97-0.15c-0.41,0-0.78,0.08-1.13,0.23
			c-0.34,0.15-0.64,0.37-0.9,0.64c-0.25,0.27-0.45,0.59-0.6,0.96c-0.15,0.37-0.22,0.75-0.22,1.16v5.17H127.18z"/>
		<path class="st0" d="M135.51,47.41c0.14,0.13,0.3,0.24,0.48,0.34c0.18,0.1,0.41,0.15,0.68,0.15c0.23,0,0.42-0.05,0.58-0.15
			c0.16-0.1,0.31-0.25,0.44-0.45c0.13-0.2,0.26-0.45,0.38-0.74c0.12-0.29,0.26-0.62,0.41-1l0.25-0.63l-4.39-9.73h2.17l3.16,7.41
			l2.78-7.41h2.07l-3.92,9.56c-0.18,0.45-0.37,0.95-0.56,1.49c-0.19,0.54-0.43,1.05-0.71,1.54c-0.28,0.49-0.63,0.89-1.03,1.21
			c-0.41,0.32-0.92,0.48-1.54,0.48c-0.49,0-0.91-0.07-1.25-0.2c-0.34-0.13-0.63-0.31-0.89-0.54L135.51,47.41z"/>
		<path class="st0" d="M150.18,30.94h2.05l7.68,10.99V30.94h1.98v14.07h-2.03L152.16,34v11.01h-1.98V30.94z"/>
		<path class="st0" d="M173.88,43.57c-0.11,0.13-0.28,0.29-0.51,0.48c-0.23,0.2-0.52,0.39-0.88,0.57c-0.36,0.18-0.78,0.34-1.27,0.47
			c-0.48,0.13-1.04,0.2-1.66,0.2c-0.76,0-1.46-0.13-2.09-0.38c-0.63-0.25-1.17-0.61-1.62-1.08c-0.45-0.46-0.8-1.02-1.05-1.67
			c-0.25-0.65-0.37-1.36-0.37-2.15c0-0.72,0.12-1.39,0.36-2.02c0.24-0.63,0.58-1.17,1.01-1.62c0.44-0.46,0.95-0.82,1.55-1.09
			c0.6-0.27,1.26-0.4,1.97-0.4c0.84,0,1.57,0.16,2.17,0.49s1.1,0.75,1.49,1.29c0.39,0.53,0.67,1.15,0.86,1.84
			c0.18,0.69,0.27,1.41,0.27,2.15h-7.74c0.01,0.44,0.11,0.84,0.29,1.2c0.18,0.37,0.41,0.68,0.71,0.95c0.3,0.27,0.63,0.48,1.01,0.63
			s0.78,0.23,1.2,0.23c0.83,0,1.51-0.14,2.05-0.42s0.92-0.56,1.16-0.82L173.88,43.57z M172.17,39.25c-0.06-0.76-0.32-1.41-0.8-1.94
			c-0.48-0.53-1.15-0.8-2.03-0.8c-0.45,0-0.86,0.08-1.21,0.23c-0.36,0.15-0.66,0.36-0.92,0.61c-0.25,0.25-0.45,0.55-0.59,0.88
			c-0.14,0.33-0.22,0.67-0.23,1.02H172.17z"/>
		<path class="st0" d="M176.92,36.78h-1.77V35.2h1.77v-3.21h1.9v3.21h2.87v1.58h-2.87v4.83c0,0.79,0.12,1.33,0.37,1.63
			c0.25,0.29,0.59,0.44,1.04,0.44c0.37,0,0.67-0.06,0.91-0.17c0.24-0.11,0.48-0.28,0.72-0.51l0.86,1.16
			c-0.41,0.39-0.83,0.68-1.25,0.85c-0.43,0.18-0.94,0.26-1.53,0.26c-1.04,0-1.8-0.28-2.29-0.84c-0.48-0.56-0.73-1.44-0.73-2.64
			V36.78z"/>
		<path class="st0" d="M183.22,35.2h2.09l2.19,7.49l2.36-7.49h1.63l2.36,7.55L196,35.2h1.96l-3.25,9.81h-1.88l-2.28-6.86l-2.26,6.86
			h-1.77L183.22,35.2z"/>
		<path class="st0" d="M203.94,45.3c-0.76,0-1.46-0.14-2.09-0.41c-0.63-0.27-1.18-0.65-1.64-1.13c-0.46-0.48-0.82-1.03-1.08-1.66
			c-0.26-0.63-0.39-1.3-0.39-2.02c0-0.72,0.13-1.39,0.39-2.02c0.26-0.63,0.62-1.18,1.08-1.66c0.46-0.48,1-0.85,1.64-1.13
			c0.63-0.27,1.33-0.41,2.09-0.41c0.74,0,1.43,0.14,2.07,0.41c0.63,0.27,1.18,0.65,1.65,1.13c0.46,0.48,0.82,1.03,1.09,1.66
			c0.26,0.63,0.39,1.3,0.39,2.02c0,0.72-0.13,1.39-0.39,2.02c-0.26,0.63-0.62,1.18-1.09,1.66c-0.47,0.48-1.01,0.85-1.65,1.13
			C205.37,45.17,204.68,45.3,203.94,45.3z M203.94,43.66c0.51,0,0.96-0.1,1.37-0.31c0.41-0.2,0.75-0.47,1.03-0.8
			c0.28-0.33,0.5-0.71,0.64-1.14c0.15-0.43,0.22-0.87,0.22-1.32c0-0.44-0.07-0.87-0.22-1.3c-0.15-0.43-0.37-0.81-0.65-1.15
			c-0.29-0.34-0.63-0.61-1.03-0.81c-0.4-0.2-0.86-0.31-1.36-0.31c-0.51,0-0.96,0.1-1.37,0.31c-0.41,0.2-0.75,0.47-1.03,0.8
			c-0.28,0.33-0.5,0.71-0.64,1.14c-0.15,0.43-0.22,0.87-0.22,1.32c0,0.45,0.07,0.89,0.22,1.31c0.15,0.42,0.37,0.8,0.65,1.14
			c0.29,0.34,0.63,0.61,1.03,0.81C202.98,43.56,203.43,43.66,203.94,43.66z"/>
		<path class="st0" d="M211.28,45.01v-8.86c0-0.1,0-0.21,0-0.34s-0.01-0.33-0.02-0.61h1.81l0.06,1.58c0.11-0.17,0.26-0.36,0.44-0.56
			c0.18-0.2,0.4-0.39,0.66-0.56c0.26-0.17,0.56-0.31,0.91-0.43c0.34-0.12,0.74-0.18,1.19-0.18c0.21,0,0.4,0.01,0.58,0.04
			c0.18,0.03,0.34,0.07,0.5,0.13L217,36.99c-0.25-0.1-0.58-0.15-0.97-0.15c-0.41,0-0.78,0.08-1.13,0.23
			c-0.34,0.15-0.64,0.37-0.9,0.64c-0.25,0.27-0.45,0.59-0.6,0.96c-0.15,0.37-0.22,0.75-0.22,1.16v5.17H211.28z"/>
		<path class="st0" d="M219,30.94h1.9v8.29l4.11-4.03h2.28l-3.71,3.63l4.26,6.18h-2.26l-3.33-4.92l-1.35,1.31v3.61H219V30.94z"/>
	</g>
</g>
</svg>
