<?xml version="1.0" encoding="UTF-8"?>
<svg width="146px" height="36px" viewBox="0 0 146 36" version="1.1" xmlns="http://www.w3.org/2000/svg" xmlns:xlink="http://www.w3.org/1999/xlink">
    <!-- Generator: Sketch 52.3 (67297) - http://www.bohemiancoding.com/sketch -->
    <title>SLATE</title>
    <desc>Created with Sketch.</desc>
    <g id="Page-1" stroke="none" stroke-width="1" fill="none" fill-rule="evenodd">
        <g id="Desktop-HD" transform="translate(-43.000000, -49.000000)" fill="#FFFFFF">
            <path d="M65.28125,74.6953125 C65.28125,77.7422027 64.1796985,80.1328038 61.9765625,81.8671875 C59.7734265,83.6015712 56.7343944,84.46875 52.859375,84.46875 C48.9843556,84.46875 45.8125123,83.8671935 43.34375,82.6640625 L43.34375,77.3671875 C44.9062578,78.1015662 46.5663975,78.6796854 48.3242188,79.1015625 C50.08204,79.5234396 51.7187424,79.734375 53.234375,79.734375 C55.4531361,79.734375 57.0898385,79.3125042 58.1445312,78.46875 C59.199224,77.6249958 59.7265625,76.4921946 59.7265625,75.0703125 C59.7265625,73.7890561 59.2421923,72.7031295 58.2734375,71.8125 C57.3046827,70.9218705 55.3047027,69.8671936 52.2734375,68.6484375 C49.1484219,67.3828062 46.9453189,65.9375081 45.6640625,64.3125 C44.3828061,62.6874919 43.7421875,60.7343864 43.7421875,58.453125 C43.7421875,55.5937357 44.7578023,53.3437582 46.7890625,51.703125 C48.8203227,50.0624918 51.5468579,49.2421875 54.96875,49.2421875 C58.2500164,49.2421875 61.5156087,49.9609303 64.765625,51.3984375 L62.984375,55.96875 C59.9374848,54.6874936 57.218762,54.046875 54.828125,54.046875 C53.0156159,54.046875 51.6406297,54.4414023 50.703125,55.2304688 C49.7656203,56.0195352 49.296875,57.0624935 49.296875,58.359375 C49.296875,59.2500045 49.4843731,60.0117156 49.859375,60.6445312 C50.2343769,61.2773469 50.8515582,61.8749972 51.7109375,62.4375 C52.5703168,63.0000028 54.1171763,63.7421829 56.3515625,64.6640625 C58.8672001,65.7109427 60.7109316,66.6874955 61.8828125,67.59375 C63.0546934,68.5000045 63.9140598,69.5234318 64.4609375,70.6640625 C65.0078152,71.8046932 65.28125,73.1484298 65.28125,74.6953125 Z M75.9140625,84 L75.9140625,49.734375 L81.515625,49.734375 L81.515625,79.1953125 L96.0234375,79.1953125 L96.0234375,84 L75.9140625,84 Z M127.1875,84 L123.765625,74.484375 L110.664062,74.484375 L107.3125,84 L101.40625,84 L114.226562,49.59375 L120.320312,49.59375 L133.140625,84 L127.1875,84 Z M122.289062,69.65625 L119.078125,60.328125 C118.843749,59.7031219 118.519533,58.7187567 118.105469,57.375 C117.691404,56.0312433 117.406251,55.0468781 117.25,54.421875 C116.828123,56.3437596 116.210942,58.4453011 115.398438,60.7265625 L112.304688,69.65625 L122.289062,69.65625 Z M150.148438,84 L144.546875,84 L144.546875,54.5390625 L134.46875,54.5390625 L134.46875,49.734375 L160.226562,49.734375 L160.226562,54.5390625 L150.148438,54.5390625 L150.148438,84 Z M188.859375,84 L169.476562,84 L169.476562,49.734375 L188.859375,49.734375 L188.859375,54.46875 L175.078125,54.46875 L175.078125,63.796875 L187.992188,63.796875 L187.992188,68.484375 L175.078125,68.484375 L175.078125,79.2421875 L188.859375,79.2421875 L188.859375,84 Z" id="SLATE"></path>
        </g>
    </g>
</svg>